…
```r
(new_melted_data <- melted_data %>% 
    group_by(Sample, IDENTIFIER) %>% 
    summarize(Count = mean(value)))
```

```
## # A tibble: 279,905 x 3
## # Groups:   Sample [17]
##    Sample   IDENTIFIER   Count
##    <fct>    <chr>        <dbl>
##  1 GSM11815 --Control   8139. 
##  2 GSM11815 222968_at    102. 
##  3 GSM11815 223641_at    200. 
##  4 GSM11815 224429_x_at 2385. 
##  5 GSM11815 224438_at     32.1
##  6 GSM11815 225714_s_at  291. 
##  7 GSM11815 225934_at    284. 
##  8 GSM11815 226014_at     66.3
##  9 GSM11815 226061_s_at   45.1
## 10 GSM11815 226138_s_at   23.3
## # … with 279,895 more rows
```
…
```r
full_data %>% 
    filter(hgnc_symbol %in% names_to_choose) %>% 
    group_by(Sample) %>% 
    mutate(Rate = Count/sum(Count))%>% 
    mutate(sum_Count = sum(Count))
```

```
## # A tibble: 1,700 x 7
## # Groups:   Sample [17]
##    Sample   hgnc_symbol  Count chromosome_name disease     Rate sum_Count
##    <chr>    <chr>        <dbl> <chr>           <fct>      <dbl>     <dbl>
##  1 GSM11815 ADAMTS1       71.3 21              RCC     0.000810    87985.
##  2 GSM11815 AGAP2         20   12              RCC     0.000227    87985.
##  3 GSM11815 AGR3          61   7               RCC     0.000693    87985.
##  4 GSM11815 ALKBH5      3750.  17              RCC     0.0426      87985.
##  5 GSM11815 BACE1        869.  11              RCC     0.00988     87985.
##  6 GSM11815 BCAR4        348.  16              RCC     0.00396     87985.
##  7 GSM11815 BCR         1229.  22              RCC     0.0140      87985.
##  8 GSM11815 C14orf28     403.  14              RCC     0.00458     87985.
##  9 GSM11815 C19orf47      69.1 19              RCC     0.000785    87985.
## 10 GSM11815 C4orf17       82.8 4               RCC     0.000941    87985.
## # … with 1,690 more rows
```
…
